…
``` r
# install.packages("devtools")
devtools::install_github("lhmet-ped/HEobs")
```

## Example

Metadata from ONS stations can be obtained with:

``` r
library(HEobs)
## basic example code
qnat_meta <- extract_metadata(NA_character_, informative = TRUE)
qnat_meta
#> # A tibble: 87 × 5
#>    estacao_codigo latitude longitude nome_estacao municipio   
#>             <dbl>    <dbl>     <dbl> <chr>        <chr>       
#>  1             18   -19.9      -49.9 A. VERMELHA  A. VERMELHA 
#>  2            237   -22.6      -48.3 BARRA BONITA BARRA BONITA
#>  3            215   -27.8      -51.2 BARRA GRANDE BARRA GRANDE
#>  4            119   -23.8      -46.5 BILLINGS_PED BILLINGS_PED
#>  5            190    -6.80     -43.9 B. ESPERANCA B. ESPERANCA
#>  6             32   -18.6      -49.4 CACH.DOURADA CACH.DOURADA
#>  7             14   -21.6      -46.6 CACONDE      CACONDE     
#>  8            247   -18.5      -51.1 CACU         CACU        
#>  9              1   -21.4      -44.5 CAMARGOS     CAMARGOS    
#> 10            216   -27.6      -51.2 CAMPOS NOVOS CAMPOS NOVOS
#> # … with 77 more rows
```
…
